{
  "geocoded_waypoints": [
    {
      "geocoder_status": "OK",
      "place_id": "ChIJC3C9c0QXWBQRiCtlbnPLd7Q",
      "types": [
        "establishment",
        "point_of_interest",
        "shopping_mall"
      ]
    },
    {
      "geocoder_status": "OK",
      "place_id": "ChIJY4AKh-s8WBQRThNWvkk_SzM",
      "types": [
        "premise"
      ]
    }
  ],
  "routes": [
    {
      "bounds": {
        "northeast": {
          "lat": 30.1259534,
          "lng": 31.4322442
        },
        "southwest": {
          "lat": 30.0045776,
          "lng": 31.3604676
        }
      },
      "copyrights": "Map data ©2019 ORION-ME",
      "legs": [
        {
          "distance": {
            "text": "27.2 km",
            "value": 27173
          },
          "duration": {
            "text": "32 mins",
            "value": 1927
          },
          "end_address": "11 Street 1, Cairo Governorate, Egypt",
          "end_location": {
            "lat": 30.0093261,
            "lng": 31.4169292
          },
          "start_address": "3 هاشم الأشقر، الهايكستب، قسم النزهة،، Cairo Governorate, Egypt",
          "start_location": {
            "lat": 30.1259534,
            "lng": 31.3751415
          },
          "steps": [
            {
              "distance": {
                "text": "0.9 km",
                "value": 895
              },
              "duration": {
                "text": "3 mins",
                "value": 173
              },
              "end_location": {
                "lat": 30.1200243,
                "lng": 31.3704851
              },
              "html_instructions": "Head <b>south</b> on <b>Hashem Al Ashkar</b> toward <b>Mohammed El-Sayed</b>",
              "polyline": {
                "points": "e~zvDs}n~DtAc@HBHBF@B?DAFAfAe@lAc@x@Q|BdDnCnD~ArB|DbGhDtEdAxAp@\\"
              },
              "start_location": {
                "lat": 30.1259534,
                "lng": 31.3751415
              },
              "travel_mode": "DRIVING"
            },
            {
              "distance": {
                "text": "1.0 km",
                "value": 988
              },
              "duration": {
                "text": "1 min",
                "value": 65
              },
              "end_location": {
                "lat": 30.1128047,
                "lng": 31.3681203
              },
              "html_instructions": "Merge onto <b>Joseph Tito St</b>",
              "maneuver": "merge",
              "polyline": {
                "points": "cyyvDq`n~DT^pBpCj@v@zB|CRZTXJRLR^l@v@z@bA~@RLTLXLZLTHVH`@Jr@NbABD@|@@`@ALAXCj@IhA[v@Wv@_@p@a@jBkAFGZWJKh@e@"
              },
              "start_location": {
                "lat": 30.1200243,
                "lng": 31.3704851
              },
              "travel_mode": "DRIVING"
            },
            {
              "distance": {
                "text": "0.2 km",
                "value": 248
              },
              "duration": {
                "text": "1 min",
                "value": 19
              },
              "end_location": {
                "lat": 30.1110965,
                "lng": 31.3697822
              },
              "html_instructions": "Continue onto <b>Abd El-Hameed Badawi</b>",
              "polyline": {
                "points": "_lxvDwqm~D`FqE|AeBRS"
              },
              "start_location": {
                "lat": 30.1128047,
                "lng": 31.3681203
              },
              "travel_mode": "DRIVING"
            },
            {
              "distance": {
                "text": "1.5 km",
                "value": 1511
              },
              "duration": {
                "text": "4 mins",
                "value": 233
              },
              "end_location": {
                "lat": 30.1019419,
                "lng": 31.3812823
              },
              "html_instructions": "Continue straight to stay on <b>Abd El-Hameed Badawi</b>",
              "maneuver": "straight",
              "polyline": {
                "points": "kaxvDc|m~D|@}@zF}FFG^[p@gA^o@\\q@\\}@pAcD`@iALYN_@LSZe@`@i@|@kA`@e@X]x@cApAiBnAyAf@q@tB}Bd@o@d@q@FIz@}@dAyAjA}AzEwFrAkBRY"
              },
              "start_location": {
                "lat": 30.1110965,
                "lng": 31.3697822
              },
              "travel_mode": "DRIVING"
            },
            {
              "distance": {
                "text": "0.6 km",
                "value": 568
              },
              "duration": {
                "text": "1 min",
                "value": 73
              },
              "end_location": {
                "lat": 30.0968719,
                "lng": 31.3819475
              },
              "html_instructions": "Slight <b>right</b>",
              "maneuver": "turn-slight-right",
              "polyline": {
                "points": "chvvD_dp~DZI`@ElCQNAt@ErBMjAGPArCShCQNAp@CpAML?pAI"
              },
              "start_location": {
                "lat": 30.1019419,
                "lng": 31.3812823
              },
              "travel_mode": "DRIVING"
            },
            {
              "distance": {
                "text": "0.1 km",
                "value": 130
              },
              "duration": {
                "text": "1 min",
                "value": 26
              },
              "end_location": {
                "lat": 30.0968524,
                "lng": 31.3832918
              },
              "html_instructions": "Turn <b>left</b> toward <b>El-Nasr Rd</b>",
              "maneuver": "turn-left",
              "polyline": {
                "points": "mhuvDehp~DEmE@UBSBS"
              },
              "start_location": {
                "lat": 30.0968719,
                "lng": 31.3819475
              },
              "travel_mode": "DRIVING"
            },
            {
              "distance": {
                "text": "3.3 km",
                "value": 3292
              },
              "duration": {
                "text": "3 mins",
                "value": 194
              },
              "end_location": {
                "lat": 30.078689,
                "lng": 31.361514
              },
              "html_instructions": "Turn <b>right</b> onto <b>El-Nasr Rd</b>",
              "maneuver": "turn-right",
              "polyline": {
                "points": "ihuvDqpp~Db@V\\Pl@Vb@LxAZ`AJNBnCTvD^|A`@`@Rb@Tj@d@d@d@JLVZd@r@Rb@^fANn@Nz@Ht@DfA@XFhC?x@?dA?fAF`CHjDLzJAn@?FBlDFdB@f@L`CBj@Dz@Jx@Hj@Lh@Ld@Pb@Pb@R^V^VZZ^ZZd@^f@\\l@\\jCzAXPtBlAbDrBhAp@LJ`D~C^`@PNxH~HbC`C`@`@d@\\LJNJXTNJj@b@dAr@r@j@@?l@Zh@Rp@TZFp@Nh@FJBJ@`AF`AHrBNrBP"
              },
              "start_location": {
                "lat": 30.0968524,
                "lng": 31.3832918
              },
              "travel_mode": "DRIVING"
            },
            {
              "distance": {
                "text": "6.2 km",
                "value": 6213
              },
              "duration": {
                "text": "5 mins",
                "value": 323
              },
              "end_location": {
                "lat": 30.0789178,
                "lng": 31.421712
              },
              "html_instructions": "Take the ramp onto <b>El-Thawra St</b>/<b>Suez Rd</b>/<b>Route 50M</b><div style=\"font-size:0.9em\">Continue to follow Route 50M</div>",
              "maneuver": "ramp-right",
              "polyline": {
                "points": "yvqvDmhl~DPHFBHBBBDBDH@@BD@DDJ?J?H?JAFCHCHGJGFEBGDG@C@E?IAI?MCKAICK?E?I?G?E?G@KDE@IDGBIBGDKFIFIDIBKBG@G?A?E?AAE?ECGECAACCECEAICMAGCS?CDu@DkB@a@Bo@Dy@H}ANi@d@eIHgBHoAh@_Lb@gIJ}Av@eODuADmFCa@JqF@yAAaBOmC]}E_@aEKaAKeACWEa@E_@W_CSyBI{@K{@Iu@I}@_@wDE]IeAEg@Ca@Ag@?o@?{ACyCAw@AiAGoBCk@EgA?Q?GCYCwAKqDQmGM{FEuDGgEMkGQuFKsEQyFEaBAu@C}@OcFGkBUsMGcCIyEBcCDkBB_G@iCF_ET{Hd@}HRgCR}BV}BR{AXwBr@}Er@{Eb@oDHq@jBgM"
              },
              "start_location": {
                "lat": 30.078689,
                "lng": 31.361514
              },
              "travel_mode": "DRIVING"
            },
            {
              "distance": {
                "text": "0.8 km",
                "value": 840
              },
              "duration": {
                "text": "1 min",
                "value": 37
              },
              "end_location": {
                "lat": 30.0789248,
                "lng": 31.4303578
              },
              "html_instructions": "Keep <b>right</b>",
              "maneuver": "keep-right",
              "polyline": {
                "points": "gxqvDu`x~DZ{AF_@Hy@RiCHcCDkB@sBA{AGiDSgEGiAEq@?QUyGQgD"
              },
              "start_location": {
                "lat": 30.0789178,
                "lng": 31.421712
              },
              "travel_mode": "DRIVING"
            },
            {
              "distance": {
                "text": "1.3 km",
                "value": 1280
              },
              "duration": {
                "text": "1 min",
                "value": 65
              },
              "end_location": {
                "lat": 30.0700032,
                "lng": 31.4269596
              },
              "html_instructions": "Take the ramp to <b>Ring Rd</b>",
              "maneuver": "ramp-right",
              "polyline": {
                "points": "gxqvDwvy~DJaBDi@DSHW`@s@d@c@r@[x@ShAK~AUb@Gl@E`@E`@A\\?h@Bj@DbAPl@Jx@\\|@`@x@^b@LnArAzCfDtDfEbExEvCrDd@v@"
              },
              "start_location": {
                "lat": 30.0789248,
                "lng": 31.4303578
              },
              "travel_mode": "DRIVING"
            },
            {
              "distance": {
                "text": "6.1 km",
                "value": 6103
              },
              "duration": {
                "text": "4 mins",
                "value": 266
              },
              "end_location": {
                "lat": 30.0220313,
                "lng": 31.4015336
              },
              "html_instructions": "Take the ramp on the <b>left</b> onto <b>Ring Rd</b>",
              "maneuver": "ramp-left",
              "polyline": {
                "points": "o`pvDoay~Df@\\|@n@xAnAxDhD~@lAfIlNVb@d@x@zA`C`AtAdArA|AnBnAtA~@`Az@n@nCjCPNrLrJbIjGtMlKXXpCtBhPnMv@j@fFbEtCxBlA`AvExClBdAnB~@bChAtDtAvAd@~@Xx@TjCh@fCd@t@JPDnCZ~ANpKt@|ALpHh@nObArL`ApM~@tGj@zCVpLv@|Ir@nHj@hHl@"
              },
              "start_location": {
                "lat": 30.0700032,
                "lng": 31.4269596
              },
              "travel_mode": "DRIVING"
            },
            {
              "distance": {
                "text": "0.3 km",
                "value": 299
              },
              "duration": {
                "text": "1 min",
                "value": 18
              },
              "end_location": {
                "lat": 30.0193937,
                "lng": 31.4009282
              },
              "html_instructions": "Take exit <b>21</b> toward <b>Mokattam</b>",
              "maneuver": "ramp-right",
              "polyline": {
                "points": "utfvDqbt~DfC`@nBZn@FfBZNDnBN"
              },
              "start_location": {
                "lat": 30.0220313,
                "lng": 31.4015336
              },
              "travel_mode": "DRIVING"
            },
            {
              "distance": {
                "text": "0.5 km",
                "value": 535
              },
              "duration": {
                "text": "1 min",
                "value": 34
              },
              "end_location": {
                "lat": 30.0146259,
                "lng": 31.4002248
              },
              "html_instructions": "Keep <b>left</b> at the fork, follow signs for <b>Maadi</b>/<b>New Cairo</b>",
              "maneuver": "fork-left",
              "polyline": {
                "points": "edfvDy~s~D`M`Av@BnCTb@BNBxAR~CT"
              },
              "start_location": {
                "lat": 30.0193937,
                "lng": 31.4009282
              },
              "travel_mode": "DRIVING"
            },
            {
              "distance": {
                "text": "0.4 km",
                "value": 425
              },
              "duration": {
                "text": "1 min",
                "value": 36
              },
              "end_location": {
                "lat": 30.01603369999999,
                "lng": 31.4003808
              },
              "html_instructions": "Keep <b>right</b> at the fork, follow signs for <b>5th Settlement</b>/<b>90 St.</b>/<b>Suez Rd.</b> and merge onto <b>El-Moshir Tantawy Axis</b>",
              "maneuver": "fork-right",
              "polyline": {
                "points": "mfevDkzs~Dh@VLJPRFNDPBN?T?LCPCTIPUPSLSDUDQ@M@S?M?O?M?WC}@GOGKGEGCIIUK_@C_AASCICGMK?aA"
              },
              "start_location": {
                "lat": 30.0146259,
                "lng": 31.4002248
              },
              "travel_mode": "DRIVING"
            },
            {
              "distance": {
                "text": "1.5 km",
                "value": 1472
              },
              "duration": {
                "text": "2 mins",
                "value": 94
              },
              "end_location": {
                "lat": 30.0159614,
                "lng": 31.4156529
              },
              "html_instructions": "Continue onto <b>‫التسعين الجنوبي‬‎</b>",
              "polyline": {
                "points": "eoevDk{s~DAi@?c@@i@?c@@a@?]@eU?kCAgC?oA?ICeDAKGaN?I@qA?oB?_CBeAAoMA_B@i@B[@SFUFW"
              },
              "start_location": {
                "lat": 30.01603369999999,
                "lng": 31.4003808
              },
              "travel_mode": "DRIVING"
            },
            {
              "distance": {
                "text": "1.1 km",
                "value": 1090
              },
              "duration": {
                "text": "2 mins",
                "value": 107
              },
              "end_location": {
                "lat": 30.0075043,
                "lng": 31.4115215
              },
              "html_instructions": "Slight <b>right</b> onto <b>Al Amal</b> (signs for <b>German University in Cairo</b>)",
              "maneuver": "turn-slight-right",
              "polyline": {
                "points": "wnevDyzv~Db@s@PYLQJMFENGLGTGXAP@P@d@NRHvBnAlAp@tC~AjAn@`CvAVT\\VTNdAb@rEdCxDvB|@j@hAj@jAp@h@XnAz@"
              },
              "start_location": {
                "lat": 30.0159614,
                "lng": 31.4156529
              },
              "travel_mode": "DRIVING"
            },
            {
              "distance": {
                "text": "0.7 km",
                "value": 675
              },
              "duration": {
                "text": "1 min",
                "value": 78
              },
              "end_location": {
                "lat": 30.0046506,
                "lng": 31.4176381
              },
              "html_instructions": "Turn <b>left</b> onto <b>Akhnaton</b>",
              "maneuver": "turn-left",
              "polyline": {
                "points": "{ycvD_av~DDCDAFEBCDEDEBEBG@EBIHiA@IBSN{@dAoCl@}A~@mCd@kArDgJj@{AVo@Tm@"
              },
              "start_location": {
                "lat": 30.0075043,
                "lng": 31.4115215
              },
              "travel_mode": "DRIVING"
            },
            {
              "distance": {
                "text": "0.6 km",
                "value": 609
              },
              "duration": {
                "text": "1 min",
                "value": 86
              },
              "end_location": {
                "lat": 30.0093261,
                "lng": 31.4169292
              },
              "html_instructions": "Turn <b>left</b> onto <b>Street 1</b><div style=\"font-size:0.9em\">Destination will be on the right</div>",
              "maneuver": "turn-left",
              "polyline": {
                "points": "ahcvDggw~DDKFMa@YkBgAuBgAKEOEMCe@?WDOBOFIBMHa@R{@f@cAj@WP{@h@gCxA{Av@QFOBM?G?"
              },
              "start_location": {
                "lat": 30.0046506,
                "lng": 31.4176381
              },
              "travel_mode": "DRIVING"
            }
          ],
          "traffic_speed_entry": [],
          "via_waypoint": []
        }
      ],
      "overview_polyline": {
        "points": "e~zvDs}n~DtAc@HBPDHAnAg@lAc@x@Q|BdDnCnD~ArB|DbGnFnHp@\\T^|ChEpDfFl@`Av@z@bA~@h@Zt@Zl@RtAZhAD~A?f@Ej@IhA[v@Wv@_@|CmBxAqA`FqE|AeBpAqAbGeG^[p@gA|@aBnBaFn@cB\\s@|@oA~AqBrAaBpAiBnAyA|CoDjAaBbAgApCwDzEwFrAkBRYZInDWdAGdJk@|Ge@L?pAIEmEDi@BSb@VjAh@|Bh@pANfIt@|A`@`@RnAz@p@r@|@nAr@jB^jBN|BHbD?~BFhEVfPAv@JrGNhDHfBTdBZnAb@fAj@~@r@z@`Az@tAz@dDlBxG`EvA|@`E`EpNrN|AjAtDnCn@ZzAh@lAVt@JbGb@rBPPHPFPRDJDV?TEPKTMJOFI@m@Ge@Ca@Fa@Ng@Ze@HOASOMc@E[Dy@PwFH}ANi@n@mLr@oNn@eL|@{QDmFCa@LkIAaBOmC]}E_@aEWgCg@yEs@gHy@yIIiAAg@E}ISmHGkC]_MSqLUsM]iMW{IEsBWoI]wQIyEBcCHkJHiIT{Hd@}Hf@eGj@yEdDaVtByNb@{B\\cENoF?oEGiDSgEM{BUkHQgDJaBJ}@HW`@s@d@c@r@[x@ShAKbC]nAK~@AtAHpB\\vB~@x@^b@LjFzFxJ`LvCrDd@v@dBlArGxF~@lAfIlN|@|A|CvEbDbEnCvCz@n@nCjCdMbKxWxSXXpCtB`RzN|J|HlA`AvExC|EdCbChAtDtAvC~@dE~@|Dp@`D`@pNdAnKv@nObArL`AfVjBlQnAlS~AhHl@fC`@~Cb@vB`@pPpAfEXr@FxAR~CTv@b@Xb@H`@?b@Gf@IPUPg@Rg@F_A@e@C}@GOGQOM_@K_@C_AE]QSAkBBsC@cVAsGEkGGkN@aEBeECoPDeAHi@FWb@s@^k@RS\\On@Ib@Bx@XdE`C`FnC`CvAVTr@f@dAb@rEdCvFbDtC|Ah@XnAz@JEVUL]JsARoArBmFdByElGaPLYmCaBaCmA]I}@D_@JuBhA_H`EmB~@]BG?"
      },
      "summary": "Route 50M",
      "warnings": [],
      "waypoint_order": []
    }
  ],
  "status": "OK"
}